﻿#Anbennar - theres some khet clothes

legwear = {
	# interface_position = 1
	usage = game
	selection_behavior = max

	################################ VANILLA #####################################################################
	
	no_legwear = {
		usage = game 
		dna_modifiers = {
			accessory = {
				mode = add
		
				gene = legwear
				template = no_legwear
				value = 0
			}
		}
		weight = {
			base = 0
			modifier = {
				add = 1000
				AND = {
					# Deliberately not the "fully naked" one since you'll wear a nightgown if we don't allow full nudity
					should_be_naked_trigger = yes
				}
			}
		}
	}

## No Leg wear for children under 4 ## 

	children_no_headgear = {

		dna_modifiers = {
			accessory = {
				mode = add
				gene = legwear
				template = no_legwear
				range = { 0 1 } # For the randomness to work correctly
			}
		}	
		weight = {
			base = 0
			modifier = {
				add = 100
				scope:age < 4
			}
		}
	}

	default_legwear = {

		dna_modifiers = {
			accessory = {
				mode = add
				gene = legwear
				template = western_common_legwear
				range = { 0 1 } # For the randomness to work correctly
			}
			# morph = {
			# 	mode = modify_multiply
			# 	gene = gene_bs_body_shape
			# 	value = 1.0
			# 	template = body_shape_average
			# }
		}	
		weight = {
			base = 1
		}

	}

	western_legwear = {

		dna_modifiers = {
			accessory = {
				mode = add
				gene = legwear
				template = western_common_legwear
				range = { 0 1 } # For the randomness to work correctly
			}
			# morph = {
			# 	mode = modify_multiply
			# 	gene = gene_bs_body_shape
			# 	value = 1.0
			# 	template = body_shape_average
			# }
		}	
		weight = {
			base = 0
			modifier = {
				add = 20
				portrait_western_clothing_trigger = yes
			}
		}
	}

	western_war_legwear = {

		dna_modifiers = {
			accessory = {
				mode = add
				gene = legwear
				template = western_war_legwear
				range = { 0 1 } # For the randomness to work correctly
			}
			# morph = {
			# 	mode = modify_multiply
			# 	gene = gene_bs_body_shape
			# 	value = 1.0
			# 	template = body_shape_average
			# }
		}	
		weight = {
			base = 0
			modifier = {
				add = 60
				portrait_wear_armor_trigger = yes
				OR = {
					portrait_western_clothing_trigger = yes
					portrait_byzantine_clothing_trigger = yes
				}
				
			}
		}
	}


	mena_legwear = {

		dna_modifiers = {
			accessory = {
				mode = add
				gene = legwear
				template = mena_war_legwear
				range = { 0 1 } # For the randomness to work correctly
			}
			# morph = {
			# 	mode = modify
			# 	gene = gene_bs_body_shape
			# 	# value = 0.5
			# 	template = body_shape_average
			# }
		}	
		weight = {
			base = 0
			modifier = {
				add = 20
				OR = {
					portrait_mena_clothing_trigger = yes
					portrait_indian_clothing_trigger = yes
					portrait_african_clothing_trigger = yes
					portrait_steppe_clothing_trigger = yes
				}
			}
		}
	}

	fighting_trousers = {

		dna_modifiers = {
			accessory = {
				mode = add
				gene = clothes
				template = no_clothes
				range = { 0 1 } # For the randomness to work correctly
			}
			accessory = {
				mode = add
				gene = legwear
				template = fp1_common_legwear
				range = { 0 1 } # For the randomness to work correctly
			}
		}	
		weight = {
			base = 0
			modifier = {
				add = 1000
				should_be_topless_portrait_trigger = yes
			}
		}
	}


	ep1_jester_legwear = {

		dna_modifiers = {
			accessory = {
				mode = add
				gene = legwear
				template = ep1_jester_legwear
				range = { 0 1 } # For the randomness to work correctly
			}
		}	
		weight = {
			base = -100
			modifier = {
				add = 1000
				is_male = yes
				has_court_position = court_jester_court_position
			}
			modifier = {
				factor = 0
				OR = {
					is_adult = no
					should_be_naked_trigger = yes
				}
			}			
		}
	}




	#Anbennar - khetaratan clothes	- we should really break this out.
	kheteratan_commoner_legwear = {

		dna_modifiers = {
			accessory = {
				mode = add
				gene = legwear
				template = egyptian_legwear_common
				range = { 0 1 } # For the randomness to work correctly
			}
			# morph = {
			# 	mode = modify
			# 	gene = gene_bs_body_shape
			# 	# value = 0.5
			# 	template = body_shape_average
			# }
		}	
		weight = {
			base = 0
			modifier = {
				add = 20
				highest_held_title_tier < tier_county
				NOR = {
					AND = {
						exists = primary_spouse
						primary_spouse = {
							highest_held_title_tier > tier_county
						}
					}
					AND = {
						has_government = republic_government
						primary_title.tier > 1
					}
					AND = { is_ruler = yes has_government = theocracy_government }
				}
				portrait_kheteratan_clothing_trigger = yes
			}
		}
	}
	
	kheteratan_legwear = {

		dna_modifiers = {
			accessory = {
				mode = add
				gene = legwear
				template = mena_common_legwear
				range = { 0 1 } # For the randomness to work correctly
			}
			# morph = {
			# 	mode = modify
			# 	gene = gene_bs_body_shape
			# 	# value = 0.5
			# 	template = body_shape_average
			# }
		}	
		weight = {
			base = 0
			modifier = {
				add = 20
				portrait_kheteratan_clothing_trigger = yes
			}
		}
	}
}
