version="v0.1"
tags={
	"Total Conversion"
}
name="Anbennar CK3 (Dev)"
replace_path="common/culture/cultures"
replace_path="common/religion/religions"
replace_path="history/characters"
replace_path="history/provinces"
replace_path="history/titles"
supported_version="1.5.*"