﻿default_mystic_character = {
	age = { 30 80 }
	trait = mystic_1
	random_traits = yes
	faith = root.faith
	gender_female_chance = {
		if = {
			limit = { root.faith = { has_doctrine = doctrine_gender_male_dominated } }
			add = 0
		}
		else_if = {
			limit = { root.faith = { has_doctrine = doctrine_gender_female_dominated } }
			add = 100
		}
		else = {
			add = 50
		}
	}
	learning = max_template_high_skill
	#Anbennar
	after_creation = {
		if = {
			limit = {
				NOT = { has_racial_trait = yes }
			}
			assign_racial_trait_effect = yes
		}
	}
}

local_saint_template = {
	age = { 30 80 }
	faith = root.faith
	gender_female_chance = {
		if = {
			limit = { root.faith = { has_doctrine = doctrine_gender_male_dominated } }
			add = 0
		}
		else_if = {
			limit = { root.faith = { has_doctrine = doctrine_gender_female_dominated } }
			add = 100
		}
		else = {
			add = 50
		}
	}
	random_traits_list = {
		count = 1
		mystic_1 = {}
		mystic_2 = {}
		mystic_3 = {}
	}
	#Education
	random_traits_list = {
		count = 1
		education_learning_1 = {}
		education_learning_2 = {}
		education_learning_3 = {}
		education_learning_4 = {}
	}
	#Virtue Personality
	#Give them traits which are considered virtuous in their faith. Traits which would be the opposite of a neutral personality are omitted.
	random_traits_list = {
		count = 3
		lustful = {
			trigger = {
				root.faith = { trait_is_virtue = lustful }
			}
		}
		chaste = {
			trigger = {
				root.faith = { trait_is_virtue = chaste }
			}
		}
		gluttonous = {
			trigger = {
				root.faith = { trait_is_virtue = gluttonous }
			}
		}
		temperate = {
			trigger = {
				root.faith = { trait_is_virtue = temperate }
			}
		}
		greedy = {
			trigger = {
				root.faith = { trait_is_virtue = greedy }
			}
		}
		generous = {
			trigger = {
				root.faith = { trait_is_virtue = generous }
			}
		}
		wrathful = {
			trigger = {
				root.faith = { trait_is_virtue = wrathful }
			}
		}
		calm = {
			trigger = {
				root.faith = { trait_is_virtue = calm }
			}
		}
		patient = {
			trigger = {
				root.faith = { trait_is_virtue = patient }
			}
		}
		impatient = {
			trigger = {
				root.faith = { trait_is_virtue = impatient }
			}
		}
		arrogant = {
			trigger = {
				root.faith = { trait_is_virtue = arrogant }
			}
		}
		humble = {
			trigger = {
				root.faith = { trait_is_virtue = humble }
			}
		}
		deceitful = {
			trigger = {
				root.faith = { trait_is_virtue = deceitful }
			}
		}
		honest = {
			trigger = {
				root.faith = { trait_is_virtue = honest }
			}
		}
		craven = {
			trigger = {
				root.faith = { trait_is_virtue = craven }
			}
		}
		brave = {
			trigger = {
				root.faith = { trait_is_virtue = brave }
			}
		}
		ambitious = {
			trigger = {
				root.faith = { trait_is_virtue = ambitious }
			}
		}
		content = {
			trigger = {
				root.faith = { trait_is_virtue = content }
			}
		}
		arbitrary = {
			trigger = {
				root.faith = { trait_is_virtue = arbitrary }
			}
		}
		just = {
			trigger = {
				root.faith = { trait_is_virtue = just }
			}
		}
		paranoid = {
			trigger = {
				root.faith = { trait_is_virtue = paranoid }
			}
		}
		trusting = {
			trigger = {
				root.faith = { trait_is_virtue = trusting }
			}
		}
		compassionate = {
			trigger = {
				root.faith = { trait_is_virtue = compassionate }
			}
		}
		callous = {
			trigger = {
				root.faith = { trait_is_virtue = callous }
			}
		}
		sadistic = {
			trigger = {
				root.faith = { trait_is_virtue = sadistic }
			}
		}
		stubborn = {
			trigger = {
				root.faith = { trait_is_virtue = stubborn }
			}
		}
		fickle = {
			trigger = {
				root.faith = { trait_is_virtue = fickle }
			}
		}
		vengeful = {
			trigger = {
				root.faith = { trait_is_virtue = vengeful }
			}
		}
		forgiving = {
			trigger = {
				root.faith = { trait_is_virtue = forgiving }
			}
		}
	}
	#"Special" Personality
	random_traits_list = {
		count = 1
		drunkard = {}
		contrite = {}
		reclusive = {}
		irritable = {}
		flagellant = {}
		improvident = {}
		inappetetic = {}
	}
	#Some extra flavor
	random_traits_list = {
		count = { 0 1 }
		lunatic_1 = {}
		possessed_1 = {}
		disfigured = {}
		eunuch = {}
		blind = {}
		physique_good_3 = {}
		spindly = {}
	}
	#Anbennar
	after_creation = {
		if = {
			limit = {
				NOT = { has_racial_trait = yes }
			}
			assign_racial_trait_effect = yes
		}
	}
}

mendicant_mystic_character = {
	age = { 30 80 }
	# Education
	random_traits_list = {
		count = 1
		education_learning_1 = {
			weight = { base = 20 }
		}
		education_learning_2 = {
			weight = { base = 30 }
		}
		education_learning_3 = {
			weight = { base = 30 }
		}
		education_learning_4 = {
			weight = { base = 20 }
		}
	}
	# Mystical Education
	random_traits_list = {
		count = 1
		mystic_1 = {
			weight = { base = 40 }
		}
		mystic_2 = {
			weight = { base = 20 }
		}
		mystic_3 = {
			weight = { base = 10 }
		}
	}
	trait = devoted
	trait = zealous
	random_traits = yes
	culture = root.culture
	faith = root.faith
	gender_female_chance = {
		if = {
			limit = { root.faith = { has_doctrine = doctrine_gender_male_dominated } }
			add = 0
		}
		else_if = {
			limit = { root.faith = { has_doctrine = doctrine_gender_female_dominated } }
			add = 100
		}
		else = {
			add = 50
		}
	}
	learning = max_template_high_skill
	prowess = {
		min_template_high_skill
		max_template_high_skill
	}
	#Anbennar
	after_creation = {
		if = {
			limit = {
				NOT = { has_racial_trait = yes }
			}
			assign_racial_trait_effect = yes
		}
	}
}
